q_id,fr,en,boite,type,inline,help
q11,1. Quelle est la densité moyenne initiale en chardon de votre parcelle ?,1. What is the mean of the initial thistle density in your field?,b11,radio,F,F
q12,2. Quelle est la fréquence d'occurrence en chardon de votre parcelle ?,2. What is the initial thistle variability in your field ?,b11,radio,F,F
q21111,3. Température moyenne en mars,3. March mean temperature,b21,radio,T,F
q21112,4. Température moyenne en avril,4. April mean temperature,b21,radio,T,F
q21113,5. Température moyenne en mai,5. May mean temperature,b21,radio,T,F
q21121,6. Pluie cumulée en mars,6. March accumulated rainfall,b22,radio,T,F
q21122,7. Pluie cumulée en avril,7. April accumulated rainfall,b22,radio,T,F
q21123,8. Pluie cumulée en mai,8. May accumulated rainfall,b22,radio,T,F
q212,9. Quelle est la compaction du sol de votre parcelle ?,9. Which soil compaction do you have?,b23,radio,T,F
q22111,10. Quelles espèces utilisez-vous en prairie ?,10. Which crop do you use in your ley?,b31,select,F,F
q22112,11. Quelle est la fréquence d’entretien de votre prairie ?,11. How often do you manage your ley?,b31,radio,F,F
q22113,12. Combien d'années conservez-vous votre prairie ?,12. How many years do you keep your ley?,b31,radio,F,F
q22114,13. Votre prairie a été détruite :,13. You ley was terminated:,b31,radio,T,F
q22121,14. Quelle espèce semez-vous en couvert végétal ?,14. What cover crop do you use?,b31,select,F,F
q22122,15. Comment détruisez-vous votre couvert végétal ?,15. How do you terminate your cover crop?,b31,radio,F,F
q22131,16. Quelle est votre culture actuelle ?,16. Which crop did you sown this year?,b31,select,F,F
q22132,17. A quelle densité avez-vous semé votre culture ?,17. To which density did you sow your current crop?,b31,radio,F,F
q2214,18. A quelle fréquence avez-vous recours à un herbicide pour la gestion du chardon ?,18. How often do you use herbicide as a thistle control method?,b32,radio,F,F
q22211,19. Combien d'écimages avez-vous réalisé cette année sur votre parcelle ?,19. How many selective cutting did you perform this year?,b33,radio,T,F
q22212,20. Combien de binages inter-rangs avez-vous réalisé cette année sur votre parcelle ?,20. How many interrow hoeing did you perform this year?,b33,radio,T,F
q22221,21. Combien de déchaumages avez-vous réalisé :<br> • l'année précédant votre semis ?,21. How many stubble tillage did you perform : <br> • 1 year ago?,b33,radio,T,F
q22222,• 2 ans avant votre semis ?,• 2 years ago?,b33,radio,T,F
q22223,• 3 ans avant votre semis ?,• 3 years ago?,b33,radio,T,F
q22224,• 4 ans avant votre semis ?,• 4 years ago?,b33,radio,T,F
q2223,22. A quelle fréquence labourez-vous cette parcelle ?,22. How often do you plow?,b33,radio,F,F
