r_id,fr,en,q_id,effet_temp,effet
r1,pas de chardon,no shoot,q11,Absent,plus
r2,1 à 10 chardons/m²,1 to 10 shoot/m²,q11,Low density,zero-plus
r3,10 à 25 chardons/m²,10 to 25 shoot/m²,q11,Intermediate density,zero
r4,plus de 25 chardons/m²,more than 25 shoot/m²,q11,High density,moins
r5,entre 0 et 2 % des quadrats contiennent du chardon,0 to 2 % of quadrats contain Cirsium shoot,q12,Low frequency,plus
r6,entre 2 et 20 % des quadrats contiennent du chardon,2 to 20 % of quadrats contain Cirsium shoot,q12,Intermediate frequency,zero
r7,plus de 20 % des quadrats contiennent du chardon,more than 20 % of quadrats contain Cirsium shoot,q12,High frequency,moins
r8,moins de 10 °C,less than 10 °C,q21111,Favorable,plus
r9,entre 10 et 15 °C,between 10 and 15 °C,q21111,Moderately favorable,zero
r10,plus de 15 °C,more than 15 °C,q21111,Unfavorable,moins
r11,moins de 10 °C,less than 10 °C,q21112,Favorable,plus
r12,entre 10 et 15 °C,between 10 and 15 °C,q21112,Moderately favorable,zero
r13,plus de 15 °C,more than 15 °C,q21112,Unfavorable,moins
r14,moins de 10 °C,less than 10 °C,q21113,Favorable,plus
r15,entre 10 et 15 °C,between 10 and 15 °C,q21113,Moderately favorable,zero
r16,plus de 15 °C,more than 15 °C,q21113,Unfavorable,moins
r17,moins de 20 mm,less than 20 mm,q21121,Favorable,plus
r18,entre 20 et 30 mm,between 20 and 30 mm,q21121,Moderately favorable,zero
r19,plus de 30 mm,more than 30 mm,q21121,Unfavorable,moins
r20,moins de 35 mm,less than 35 mm,q21122,Favorable,plus
r21,entre 35 et 45 mm,between 35 and 45 mm,q21122,Moderately favorable,zero
r22,plus de 45 mm,more than 45 mm,q21122,Unfavorable,moins
r23,moins de 60 mm,less than 60 mm,q21123,Favorable,plus
r24,entre 60 et 70 mm,between 60 and 70 mm,q21123,Moderately favorable,zero
r25,plus de 70 mm,more than 70 mm,q21123,Unfavorable,moins
r26,faible,low,q212,Low compaction,plus
r27,moyenne,moderate,q212,Moderate compaction,zero
r28,élevée,high,q212,High compaction,moins
r29,0 - Aucune,0 - None,q22111,Open canopy,moins
r30,Luzerne (pur ou mélange),Alfalfa (pure or mix),q22111,Closed canopy,plus
r31,Sarrasin (pur ou mélange),Buckwheat (pure or mix),q22111,Closed canopy,plus
r32,Trèfle (pur ou mélange),Clover (pure or mix),q22111,Closed canopy,plus
r33,Mélange de légumineuses,Leguminous mix,q22111,Closed canopy,plus
r34,Pois chiche (pur ou mélange),Field pea (pure or mix),q22111,Closed canopy,plus
r35,Moutarde (pur ou mélange),Mustard (pure or mix),q22111,Closed canopy,plus
r36,Avoine (pur ou mélange),Oat (pure or mix),q22111,Closed canopy,plus
r37,Phacélie (pur ou mélange),Phacelia (pure or mix),q22111,Closed canopy,plus
r38,Radis (pur ou mélange),Radish (pure or mix),q22111,Closed canopy,plus
r39,Sorgho (pur),Sorghum (pure),q22111,Closed canopy,plus
r40,Epeautre (pur ou mélange),Spelt (pure or mix),q22111,Closed canopy,plus
r41,Triticale (pur ou mélange),Triticale (pure or mix),q22111,Closed canopy,plus
r42,Vesce (pur ou mélange),Vetch (pure or mix),q22111,Closed canopy,plus
r43,Fève (pur),Faba bean (pure),q22111,Moderately closed canopy,zero
r44,Lin (pur),Flax (pure),q22111,Open canopy,moins
r45,Lentilles (pur),Lentils (pure),q22111,Moderately closed canopy,zero
r46,Pois protéiné (pur),Protein pea (pure),q22111,Open canopy,moins
r47,Ray-grass (pur),Ryegrass (pure),q22111,Moderately closed canopy,zero
r48,pas de prairie,No ley,q22112,Low management,moins
r49,0 par an,0 per year,q22112,Low management,moins
r50,1 par an,1 per year,q22112,Neutral management,zero
r51,2 par an,2 per year,q22112,Neutral management,zero
r52,plus de 2 par an,More than 2 per year,q22112,High management,plus
r53,pas de prairie,No ley,q22113,Unfavorable length,moins
r54,moins de 1 an,Less than 1 year,q22113,Unfavorable length,moins
r55,1 an,1 year,q22113,Moderately favorable length,zero
r56,2 ans,2 years,q22113,Moderately favorable length,zero
r57,3 ans ou plus,3 years or more,q22113,Favorable length,plus
r58,pas de prairie,No ley,q22114,Long ley return,moins
r59,Il y a moins de 3 ans,Less than 3 years ago,q22114,Short ley return,plus
r60,Il y a plus de 3 ans,More than 3 years ago,q22114,Long ley return,moins
r61,0 - Aucune,0 - None,q22121,Open canopy,moins
r62,Luzerne (pur ou mélange),Alfalfa (pure or mix),q22121,Closed canopy,plus
r63,Sarrasin (pur ou mélange),Buckwheat (pure or mix),q22121,Closed canopy,plus
r64,Trèfle (pur ou mélange),Clover (pure or mix),q22121,Closed canopy,plus
r65,Mélange de légumineuses,Leguminous mix,q22121,Closed canopy,plus
r66,Pois chiche (pur ou mélange),Field pea (pure or mix),q22121,Closed canopy,plus
r67,Moutarde (pur ou mélange),Mustard (pure or mix),q22121,Closed canopy,plus
r68,Avoine (pur ou mélange),Oat (pure or mix),q22121,Closed canopy,plus
r69,Phacélie (pur ou mélange),Phacelia (pure or mix),q22121,Closed canopy,plus
r70,Radis (pur ou mélange),Radish (pure or mix),q22121,Closed canopy,plus
r71,Sorgho (pur),Sorghum (pure),q22121,Closed canopy,plus
r72,Epeautre (pur ou mélange),Spelt (pure or mix),q22121,Closed canopy,plus
r73,Triticale (pur ou mélange),Triticale (pure or mix),q22121,Closed canopy,plus
r74,Vesce (pur ou mélange),Vetch (pure or mix),q22121,Closed canopy,plus
r75,Fève (pur),Fababean (pure),q22121,Moderately closed canopy,zero
r76,Lin (pur),Flax (pure),q22121,Open canopy,moins
r77,Lentilles (pur),Lentils (pure),q22121,Moderately closed canopy,zero
r78,Pois protéiné (pur),Protein pea (pure),q22121,Open canopy,moins
r79,Ray-grass (pur),Ryegrass (pure),q22121,Moderately closed canopy,zero
r80,Pas de culture,No cover crop,q22122,Unfavorable termination,moins
r81,Gel,Frost termination,q22122,Unfavorable termination,moins
r82,Herbicide,Herbicide termination,q22122,Unfavorable termination,moins
r83,Rouleau,Rolling termination,q22122,Unfavorable termination,moins
r84,Fauche,Chopping termination,q22122,Moderately favorable termination,zero
r85,Labour,Plowing termination,q22122,Favorable termination,plus
r86,Motoculteur,Cultivator termination,q22122,Favorable termination,plus
r87,Pas d’arrêt du couvert,No termination,q22122,Unfavorable termination,moins
r88,0 - Pas de semis,0 - None,q22131,Open canopy,moins
r89,Luzerne,Alfalfa,q22131,Closed canopy,plus
r90,Betterave rouge,Beetroot,q22131,Open canopy,moins
r91,Sarrasin,Buckwheat,q22131,Closed canopy,plus
r92,Céréales + Légumineuses,Cereal + leguminous,q22131,Closed canopy,plus
r93,Lin,Flax,q22131,Open canopy,moins
r94,Chanvre,Hemp,q22131,Closed canopy,plus
r95,Légumineuses,Leguminous,q22131,Moderately closed canopy,zero
r96,Lentiles,Lentils,q22131,Moderately closed canopy,zero
r97,Lupin d’hiver,Winter lupin,q22131,Open canopy,moins
r98,Lupin de printemps,Spring lupin,q22131,Open canopy,moins
r99,Maïs,Maize,q22131,Open canopy,moins
r100,Méteil,Meslin,q22131,Closed canopy,plus
r101,Moutarde,Mustard,q22131,Closed canopy,plus
r102,Avoine + vesce,Oat + Vetch,q22131,Closed canopy,plus
r103,Pois,Peas,q22131,Moderately closed canopy,zero
r104,Pommes de terre,Potatoe,q22131,Open canopy,moins
r105,Pois protéinés,Protein pea,q22131,Open canopy,moins
r106,Petit épeautre,Small spelt,q22131,Moderately closed canopy,zero
r107,Sorgho,Sorghum,q22131,Open canopy,moins
r108,Soja,Soybean,q22131,Open canopy,moins
r109,Epeautre,Spelt,q22131,Closed canopy,plus
r110,Orge de printemps,Spring barley,q22131,Closed canopy,plus
r111,Fève de printemps,Spring faba bean,q22131,Moderately closed canopy,zero
r112,Avoine de printemps,Spring oat,q22131,Closed canopy,plus
r113,Colza de printemps,Spring rapeseed,q22131,Closed canopy,plus
r114,Seigle de printemps,Spring rye,q22131,Closed canopy,plus
r115,Blé de printemps,Spring wheat,q22131,Closed canopy,plus
r116,Tournesol,Sunflower,q22131,Open canopy,moins
r117,Triticale,Triticale,q22131,Closed canopy,plus
r118,Triticale + pois,Triticale + peas,q22131,Closed canopy,plus
r119,Vesce,Vetch,q22131,Closed canopy,plus
r120,Orge d’hiver,Winter barley,q22131,Closed canopy,plus
r121,Fève d’hiver,Winter fababean,q22131,Moderately closed canopy,zero
r122,Avoine d’hiver,Winter oat,q22131,Closed canopy,plus
r123,Colza d’hiver + lentilles,Winter rapeseed + Lentils,q22131,Closed canopy,plus
r124,Colza d’hiver,Winter rapeseed,q22131,Closed canopy,plus
r125,Seigle d’hiver,Winter rye,q22131,Closed canopy,plus
r126,Blé d’hiver,Winter wheat,q22131,Closed canopy,plus
r127,Autre culture,Other crop,q22131,Open canopy,moins
r128,Moins que celle de la recommandation locale,Less than regional recommendation,q22132,Unfavorable rate,moins
r129,Celle de la recommandation locale,Regional recommendation,q22132,Moderately favorable rate,zero
r130,Plus que celle de la recommandation locale,More than regional recommendation,q22132,Favorable rate,plus
r131,Pas d’herbicide,0 herbicide,q2214,No herbicide,moins
r132,1 fois tous les 4 ans,1 year out of 4,q2214,Moderately efficient herbicide,zero
r133,2 fois tous les 4 ans,2 years out of 4,q2214,Moderately efficient herbicide,zero
r134,3 fois tous les 4 ans,3 years out of 4,q2214,Highly efficient herbicide,plus
r135,Chaque année,Every year,q2214,Highly efficient herbicide,plus
r136,Pas d’écimage,No selective cutting,q22211,Unsatisfying num of repetition,moins
r137,1,1,q22211,Neutral,zero
r138,Plus de 1,More than 1,q22211,Satisfying num of repetition,plus
r139,0,0,q22212,Unsatisfying num of repetition,moins
r140,1,1,q22212,Unsatisfying num of repetition,moins
r141,2,2,q22212,Neutral,zero
r142,3,3,q22212,Neutral,zero
r143,Plus de 3,More than 3,q22212,Satisfying num of repetition,plus
r144,0,0,q22221,Unsatisfying num of repetition,moins
r145,1,1,q22221,Unsatisfying num of repetition,moins
r146,2,2,q22221,Unsatisfying num of repetition,moins
r147,Plus de 2,More than 2,q22221,Satisfying num of repetition,plus
r148,0,0,q22222,Unsatisfying num of repetition,moins
r149,1,1,q22222,Unsatisfying num of repetition,moins
r150,2,2,q22222,Unsatisfying num of repetition,moins
r151,Plus de 2,More than 2,q22222,Satisfying num of repetition,plus
r152,0,0,q22223,Unsatisfying num of repetition,moins
r153,1,1,q22223,Unsatisfying num of repetition,moins
r154,2,2,q22223,Unsatisfying num of repetition,moins
r155,Plus de 2,More than 2,q22223,Satisfying num of repetition,plus
r156,0,0,q22224,Unsatisfying num of repetition,moins
r157,1,1,q22224,Unsatisfying num of repetition,moins
r158,2,2,q22224,Unsatisfying num of repetition,moins
r159,Plus de 2,More than 2,q22224,Satisfying num of repetition,plus
r160,Pas de labour,No plowing,q2223,Inefficient plowing,moins
r161,1 labour en 4 ans,1 plowing out of 4 years,q2223,Moderately efficient plowing,zero
r162,2 labour en 4 ans,2 plowing out of 4 years,q2223,Moderately efficient plowing,zero
r163,3 labour en 4 ans,3 plowing out of 4 years,q2223,Efficient plowing,plus
r164,4 labour en 4 ans,4 plowing out of 4 years,q2223,Efficient plowing,plus
